# Blender MTL File: 'None'
# Material Count: 1

newmtl Material__25
	Ns 10.0000
	Ni 1.5000
	d 1.0000
	Tr 0.0000
	Tf 1.0000 1.0000 1.0000 
	illum 2
	Ka 0.5880 0.5880 0.5880
	Kd 0.5880 0.5880 0.5880
	Ks 0.0000 0.0000 0.0000
	Ke 0.0000 0.0000 0.0000
	map_Ka Soldier_new-1_diffuse.tga
	map_Kd Soldier_new-1_diffuse.tga