^D:\ASTROMEDICOMP\05-RTE2020-21\WEBGL_FINAL VERSION\WEBGLPROJECT\WEBGLPROJECT\FLAGRENDERING.CPP
/c /IC:\FREETYPE\INCLUDE /I"C:\ASSIMP-5.0.1\INCLUDE" /I"C:\GLM-0.9.9.5\GLM" /I"C:\GLEW-2.1.0\INCLUDE" /ZI /JMC /nologo /W3 /WX- /diagnostics:column /sdl /Od /D _DEBUG /D _CONSOLE /D _UNICODE /D UNICODE /Gm- /EHsc /RTC1 /MDd /GS /fp:precise /permissive- /Zc:wchar_t /Zc:forScope /Zc:inline /Fo"X64\DEBUG\\" /Fd"X64\DEBUG\VC142.PDB" /Gd /TP /FC D:\ASTROMEDICOMP\05-RTE2020-21\WEBGL_FINAL VERSION\WEBGLPROJECT\WEBGLPROJECT\FLAGRENDERING.CPP
^D:\ASTROMEDICOMP\05-RTE2020-21\WEBGL_FINAL VERSION\WEBGLPROJECT\WEBGLPROJECT\FONTRENDERING.CPP
/c /IC:\FREETYPE\INCLUDE /I"C:\ASSIMP-5.0.1\INCLUDE" /I"C:\GLM-0.9.9.5\GLM" /I"C:\GLEW-2.1.0\INCLUDE" /ZI /JMC /nologo /W3 /WX- /diagnostics:column /sdl /Od /D _DEBUG /D _CONSOLE /D _UNICODE /D UNICODE /Gm- /EHsc /RTC1 /MDd /GS /fp:precise /permissive- /Zc:wchar_t /Zc:forScope /Zc:inline /Fo"X64\DEBUG\\" /Fd"X64\DEBUG\VC142.PDB" /Gd /TP /FC D:\ASTROMEDICOMP\05-RTE2020-21\WEBGL_FINAL VERSION\WEBGLPROJECT\WEBGLPROJECT\FONTRENDERING.CPP
^D:\ASTROMEDICOMP\05-RTE2020-21\WEBGL_FINAL VERSION\WEBGLPROJECT\WEBGLPROJECT\LOGFILE.CPP
/c /IC:\FREETYPE\INCLUDE /I"C:\ASSIMP-5.0.1\INCLUDE" /I"C:\GLM-0.9.9.5\GLM" /I"C:\GLEW-2.1.0\INCLUDE" /ZI /JMC /nologo /W3 /WX- /diagnostics:column /sdl /Od /D _DEBUG /D _CONSOLE /D _UNICODE /D UNICODE /Gm- /EHsc /RTC1 /MDd /GS /fp:precise /permissive- /Zc:wchar_t /Zc:forScope /Zc:inline /Fo"X64\DEBUG\\" /Fd"X64\DEBUG\VC142.PDB" /Gd /TP /FC D:\ASTROMEDICOMP\05-RTE2020-21\WEBGL_FINAL VERSION\WEBGLPROJECT\WEBGLPROJECT\LOGFILE.CPP
^D:\ASTROMEDICOMP\05-RTE2020-21\WEBGL_FINAL VERSION\WEBGLPROJECT\WEBGLPROJECT\MAIN.CPP
/c /IC:\FREETYPE\INCLUDE /I"C:\ASSIMP-5.0.1\INCLUDE" /I"C:\GLM-0.9.9.5\GLM" /I"C:\GLEW-2.1.0\INCLUDE" /ZI /JMC /nologo /W3 /WX- /diagnostics:column /sdl /Od /D _DEBUG /D _CONSOLE /D _UNICODE /D UNICODE /Gm- /EHsc /RTC1 /MDd /GS /fp:precise /permissive- /Zc:wchar_t /Zc:forScope /Zc:inline /Fo"X64\DEBUG\\" /Fd"X64\DEBUG\VC142.PDB" /Gd /TP /FC D:\ASTROMEDICOMP\05-RTE2020-21\WEBGL_FINAL VERSION\WEBGLPROJECT\WEBGLPROJECT\MAIN.CPP
^D:\ASTROMEDICOMP\05-RTE2020-21\WEBGL_FINAL VERSION\WEBGLPROJECT\WEBGLPROJECT\MODELLOADING.CPP
/c /IC:\FREETYPE\INCLUDE /I"C:\ASSIMP-5.0.1\INCLUDE" /I"C:\GLM-0.9.9.5\GLM" /I"C:\GLEW-2.1.0\INCLUDE" /ZI /JMC /nologo /W3 /WX- /diagnostics:column /sdl /Od /D _DEBUG /D _CONSOLE /D _UNICODE /D UNICODE /Gm- /EHsc /RTC1 /MDd /GS /fp:precise /permissive- /Zc:wchar_t /Zc:forScope /Zc:inline /Fo"X64\DEBUG\\" /Fd"X64\DEBUG\VC142.PDB" /Gd /TP /FC D:\ASTROMEDICOMP\05-RTE2020-21\WEBGL_FINAL VERSION\WEBGLPROJECT\WEBGLPROJECT\MODELLOADING.CPP
^D:\ASTROMEDICOMP\05-RTE2020-21\WEBGL_FINAL VERSION\WEBGLPROJECT\WEBGLPROJECT\MYOPENAL.CPP
/c /IC:\FREETYPE\INCLUDE /I"C:\ASSIMP-5.0.1\INCLUDE" /I"C:\GLM-0.9.9.5\GLM" /I"C:\GLEW-2.1.0\INCLUDE" /ZI /JMC /nologo /W3 /WX- /diagnostics:column /sdl /Od /D _DEBUG /D _CONSOLE /D _UNICODE /D UNICODE /Gm- /EHsc /RTC1 /MDd /GS /fp:precise /permissive- /Zc:wchar_t /Zc:forScope /Zc:inline /Fo"X64\DEBUG\\" /Fd"X64\DEBUG\VC142.PDB" /Gd /TP /FC D:\ASTROMEDICOMP\05-RTE2020-21\WEBGL_FINAL VERSION\WEBGLPROJECT\WEBGLPROJECT\MYOPENAL.CPP
^D:\ASTROMEDICOMP\05-RTE2020-21\WEBGL_FINAL VERSION\WEBGLPROJECT\WEBGLPROJECT\SKYBOX.CPP
/c /IC:\FREETYPE\INCLUDE /I"C:\ASSIMP-5.0.1\INCLUDE" /I"C:\GLM-0.9.9.5\GLM" /I"C:\GLEW-2.1.0\INCLUDE" /ZI /JMC /nologo /W3 /WX- /diagnostics:column /sdl /Od /D _DEBUG /D _CONSOLE /D _UNICODE /D UNICODE /Gm- /EHsc /RTC1 /MDd /GS /fp:precise /permissive- /Zc:wchar_t /Zc:forScope /Zc:inline /Fo"X64\DEBUG\\" /Fd"X64\DEBUG\VC142.PDB" /Gd /TP /FC D:\ASTROMEDICOMP\05-RTE2020-21\WEBGL_FINAL VERSION\WEBGLPROJECT\WEBGLPROJECT\SKYBOX.CPP
^D:\ASTROMEDICOMP\05-RTE2020-21\WEBGL_FINAL VERSION\WEBGLPROJECT\WEBGLPROJECT\STBI.CPP
/c /IC:\FREETYPE\INCLUDE /I"C:\ASSIMP-5.0.1\INCLUDE" /I"C:\GLM-0.9.9.5\GLM" /I"C:\GLEW-2.1.0\INCLUDE" /ZI /JMC /nologo /W3 /WX- /diagnostics:column /sdl /Od /D _DEBUG /D _CONSOLE /D _UNICODE /D UNICODE /Gm- /EHsc /RTC1 /MDd /GS /fp:precise /permissive- /Zc:wchar_t /Zc:forScope /Zc:inline /Fo"X64\DEBUG\\" /Fd"X64\DEBUG\VC142.PDB" /Gd /TP /FC D:\ASTROMEDICOMP\05-RTE2020-21\WEBGL_FINAL VERSION\WEBGLPROJECT\WEBGLPROJECT\STBI.CPP
^D:\ASTROMEDICOMP\05-RTE2020-21\WEBGL_FINAL VERSION\WEBGLPROJECT\WEBGLPROJECT\TERRAIN.CPP
/c /IC:\FREETYPE\INCLUDE /I"C:\ASSIMP-5.0.1\INCLUDE" /I"C:\GLM-0.9.9.5\GLM" /I"C:\GLEW-2.1.0\INCLUDE" /ZI /JMC /nologo /W3 /WX- /diagnostics:column /sdl /Od /D _DEBUG /D _CONSOLE /D _UNICODE /D UNICODE /Gm- /EHsc /RTC1 /MDd /GS /fp:precise /permissive- /Zc:wchar_t /Zc:forScope /Zc:inline /Fo"X64\DEBUG\\" /Fd"X64\DEBUG\VC142.PDB" /Gd /TP /FC D:\ASTROMEDICOMP\05-RTE2020-21\WEBGL_FINAL VERSION\WEBGLPROJECT\WEBGLPROJECT\TERRAIN.CPP
